[gd_scene load_steps=8 format=2]

[ext_resource path="res://minigames/FFA/hurdle/hurdle.gd" type="Script" id=1]
[ext_resource path="res://minigames/FFA/hurdle/metal_material.tres" type="Material" id=2]
[ext_resource path="res://minigames/FFA/hurdle/plastic_material.tres" type="Material" id=3]

[sub_resource type="SpatialMaterial" id=1]

render_priority = 0
flags_transparent = false
flags_unshaded = false
flags_vertex_lighting = false
flags_no_depth_test = false
flags_use_point_size = false
flags_world_triplanar = false
flags_fixed_size = false
flags_albedo_tex_force_srgb = false
vertex_color_use_as_albedo = false
vertex_color_is_srgb = false
params_diffuse_mode = 0
params_specular_mode = 0
params_blend_mode = 0
params_cull_mode = 0
params_depth_draw_mode = 0
params_line_width = 1.0
params_point_size = 1.0
params_billboard_mode = 0
params_grow = false
params_use_alpha_scissor = false
albedo_color = Color( 0.8, 0.8, 0.8, 1 )
metallic = 0.0
metallic_specular = 0.5
metallic_texture_channel = 0
roughness = 0.0
roughness_texture_channel = 0
emission_enabled = false
normal_enabled = false
rim_enabled = false
clearcoat_enabled = false
anisotropy_enabled = false
ao_enabled = false
depth_enabled = false
subsurf_scatter_enabled = false
transmission_enabled = false
refraction_enabled = false
detail_enabled = false
uv1_scale = Vector3( 1, 1, 1 )
uv1_offset = Vector3( 0, 0, 0 )
uv1_triplanar = false
uv1_triplanar_sharpness = 1.0
uv2_scale = Vector3( 1, 1, 1 )
uv2_offset = Vector3( 0, 0, 0 )
uv2_triplanar = false
uv2_triplanar_sharpness = 1.0
proximity_fade_enable = false
distance_fade_enable = false

[sub_resource type="SpatialMaterial" id=2]

render_priority = 0
flags_transparent = false
flags_unshaded = false
flags_vertex_lighting = false
flags_no_depth_test = false
flags_use_point_size = false
flags_world_triplanar = false
flags_fixed_size = false
flags_albedo_tex_force_srgb = false
vertex_color_use_as_albedo = false
vertex_color_is_srgb = false
params_diffuse_mode = 0
params_specular_mode = 0
params_blend_mode = 0
params_cull_mode = 0
params_depth_draw_mode = 0
params_line_width = 1.0
params_point_size = 1.0
params_billboard_mode = 0
params_grow = false
params_use_alpha_scissor = false
albedo_color = Color( 0.8, 0.8, 0.8, 1 )
metallic = 0.0
metallic_specular = 0.5
metallic_texture_channel = 0
roughness = 0.0
roughness_texture_channel = 0
emission_enabled = false
normal_enabled = false
rim_enabled = false
clearcoat_enabled = false
anisotropy_enabled = false
ao_enabled = false
depth_enabled = false
subsurf_scatter_enabled = false
transmission_enabled = false
refraction_enabled = false
detail_enabled = false
uv1_scale = Vector3( 1, 1, 1 )
uv1_offset = Vector3( 0, 0, 0 )
uv1_triplanar = false
uv1_triplanar_sharpness = 1.0
uv2_scale = Vector3( 1, 1, 1 )
uv2_offset = Vector3( 0, 0, 0 )
uv2_triplanar = false
uv2_triplanar_sharpness = 1.0
proximity_fade_enable = false
distance_fade_enable = false

[sub_resource type="ArrayMesh" id=3]

blend_shape_mode = 1
custom_aabb = AABB( 0, 0, 0, 0, 0, 0 )
surfaces/0 = {
"aabb": AABB( -21, 0, -1, 42, 21.622, 18 ),
"array_data": PoolByteArray( 64, 205, 0, 0, 0, 188, 0, 60, 0, 129, 0, 0, 0, 0, 129, 127, 181, 58, 231, 57, 192, 204, 0, 0, 0, 60, 0, 60, 0, 129, 0, 0, 0, 0, 129, 127, 92, 58, 143, 57, 64, 205, 0, 0, 0, 60, 0, 60, 0, 129, 0, 0, 0, 0, 129, 127, 92, 58, 231, 57, 192, 204, 0, 0, 0, 188, 0, 60, 127, 0, 0, 0, 0, 0, 129, 127, 13, 59, 243, 58, 192, 204, 0, 64, 0, 60, 0, 60, 127, 0, 0, 0, 0, 0, 129, 127, 181, 58, 154, 58, 192, 204, 0, 0, 0, 60, 0, 60, 127, 0, 0, 0, 0, 0, 129, 127, 181, 58, 243, 58, 64, 205, 0, 0, 0, 60, 0, 60, 129, 0, 0, 0, 0, 0, 129, 127, 181, 58, 233, 57, 64, 205, 0, 64, 0, 188, 0, 60, 129, 0, 0, 0, 0, 0, 129, 127, 13, 59, 65, 58, 64, 205, 0, 0, 0, 188, 0, 60, 129, 0, 0, 0, 0, 0, 129, 127, 13, 59, 233, 57, 64, 205, 0, 0, 0, 188, 0, 60, 0, 0, 129, 0, 0, 127, 0, 127, 181, 58, 231, 57, 192, 204, 0, 64, 0, 188, 0, 60, 0, 0, 129, 0, 0, 127, 0, 127, 13, 59, 143, 57, 192, 204, 0, 0, 0, 188, 0, 60, 0, 0, 129, 0, 0, 127, 0, 127, 181, 58, 143, 57, 192, 204, 0, 0, 64, 76, 0, 60, 127, 0, 0, 0, 0, 0, 129, 127, 220, 55, 243, 58, 192, 204, 0, 0, 64, 76, 0, 60, 0, 0, 127, 0, 0, 127, 0, 127, 42, 55, 154, 58, 64, 205, 0, 64, 64, 76, 0, 60, 0, 0, 127, 0, 0, 127, 0, 127, 220, 55, 65, 58, 64, 205, 0, 0, 64, 76, 0, 60, 0, 0, 127, 0, 0, 127, 0, 127, 42, 55, 65, 58, 64, 205, 0, 64, 0, 60, 0, 60, 0, 127, 0, 0, 0, 0, 129, 127, 181, 58, 65, 58, 192, 204, 0, 64, 64, 76, 0, 60, 0, 127, 0, 0, 0, 0, 129, 127, 220, 55, 154, 58, 192, 204, 0, 64, 0, 60, 0, 60, 0, 127, 0, 0, 0, 0, 129, 127, 181, 58, 154, 58, 64, 205, 0, 0, 64, 76, 0, 60, 0, 129, 0, 0, 0, 0, 129, 127, 42, 55, 231, 57, 64, 205, 0, 64, 64, 76, 0, 60, 129, 0, 0, 0, 0, 0, 129, 127, 220, 55, 65, 58, 64, 205, 0, 64, 0, 60, 0, 60, 129, 0, 0, 0, 0, 0, 129, 127, 181, 58, 65, 58, 47, 205, 0, 64, 250, 185, 0, 60, 0, 127, 0, 0, 0, 0, 129, 127, 2, 59, 77, 58, 64, 205, 0, 64, 0, 60, 0, 60, 0, 127, 0, 0, 0, 0, 129, 127, 181, 58, 65, 58, 47, 205, 0, 64, 250, 57, 0, 60, 0, 127, 0, 0, 0, 0, 129, 127, 192, 58, 77, 58, 47, 205, 0, 64, 250, 57, 0, 60, 0, 127, 0, 0, 0, 0, 129, 127, 192, 58, 77, 58, 192, 204, 0, 64, 0, 60, 0, 60, 0, 127, 0, 0, 0, 0, 129, 127, 181, 58, 154, 58, 208, 204, 0, 64, 250, 57, 0, 60, 0, 127, 0, 0, 0, 0, 129, 127, 192, 58, 143, 58, 208, 204, 0, 64, 250, 57, 0, 60, 0, 127, 0, 0, 0, 0, 129, 127, 192, 58, 143, 58, 192, 204, 0, 64, 0, 188, 0, 60, 0, 127, 0, 0, 0, 0, 129, 127, 13, 59, 154, 58, 208, 204, 0, 64, 250, 185, 0, 60, 0, 127, 0, 0, 0, 0, 129, 127, 2, 59, 143, 58, 208, 204, 0, 64, 250, 185, 0, 60, 0, 127, 0, 0, 0, 0, 127, 127, 25, 59, 154, 57, 64, 205, 0, 64, 0, 188, 0, 60, 0, 127, 0, 0, 0, 0, 127, 127, 13, 59, 231, 57, 47, 205, 0, 64, 250, 185, 0, 60, 0, 127, 0, 0, 0, 0, 127, 127, 25, 59, 220, 57, 226, 204, 86, 77, 168, 181, 0, 60, 127, 0, 0, 0, 0, 129, 0, 127, 201, 51, 5, 53, 226, 204, 103, 77, 198, 52, 0, 60, 127, 0, 0, 0, 0, 129, 0, 127, 152, 51, 63, 53, 226, 204, 86, 77, 168, 53, 0, 60, 127, 0, 0, 0, 0, 129, 0, 127, 201, 51, 68, 53, 29, 205, 86, 77, 168, 53, 0, 60, 129, 0, 0, 0, 0, 127, 0, 127, 194, 50, 68, 53, 29, 205, 103, 77, 198, 180, 0, 60, 129, 0, 0, 0, 0, 127, 0, 127, 243, 50, 10, 53, 29, 205, 86, 77, 168, 181, 0, 60, 129, 0, 0, 0, 0, 127, 0, 127, 194, 50, 5, 53, 29, 205, 86, 77, 168, 181, 0, 60, 0, 24, 132, 0, 127, 0, 0, 127, 243, 50, 241, 52, 226, 204, 103, 77, 198, 180, 0, 60, 0, 24, 132, 0, 127, 0, 0, 127, 152, 51, 10, 53, 226, 204, 86, 77, 168, 181, 0, 60, 0, 24, 132, 0, 127, 0, 0, 127, 152, 51, 241, 52, 226, 204, 86, 77, 168, 53, 0, 60, 0, 24, 124, 0, 127, 0, 0, 127, 152, 51, 88, 53, 29, 205, 103, 77, 198, 52, 0, 60, 0, 24, 124, 0, 127, 0, 0, 127, 243, 50, 63, 53, 29, 205, 86, 77, 168, 53, 0, 60, 0, 24, 124, 0, 127, 0, 0, 127, 243, 50, 88, 53, 226, 204, 103, 77, 198, 52, 0, 60, 0, 127, 0, 0, 127, 0, 0, 127, 152, 51, 63, 53, 29, 205, 103, 77, 198, 180, 0, 60, 0, 127, 0, 0, 127, 0, 0, 127, 243, 50, 10, 53, 29, 205, 103, 77, 198, 52, 0, 60, 0, 127, 0, 0, 127, 0, 0, 127, 243, 50, 63, 53, 226, 204, 241, 76, 205, 53, 0, 60, 0, 0, 126, 0, 127, 0, 0, 127, 152, 51, 228, 53, 29, 205, 86, 77, 168, 53, 0, 60, 0, 0, 126, 0, 127, 0, 0, 127, 243, 50, 88, 53, 29, 205, 241, 76, 205, 53, 0, 60, 0, 0, 126, 0, 127, 0, 0, 127, 243, 50, 228, 53, 29, 205, 241, 76, 205, 181, 0, 60, 0, 0, 130, 0, 127, 0, 0, 127, 243, 50, 101, 52, 226, 204, 86, 77, 168, 181, 0, 60, 0, 0, 130, 0, 127, 0, 0, 127, 152, 51, 241, 52, 226, 204, 241, 76, 205, 181, 0, 60, 0, 0, 130, 0, 127, 0, 0, 127, 152, 51, 101, 52, 29, 205, 241, 76, 205, 53, 0, 60, 129, 0, 0, 0, 0, 127, 0, 127, 170, 49, 69, 53, 29, 205, 86, 77, 168, 181, 0, 60, 129, 0, 0, 0, 0, 127, 0, 127, 194, 50, 5, 53, 29, 205, 241, 76, 205, 181, 0, 60, 129, 0, 0, 0, 0, 127, 0, 127, 170, 49, 4, 53, 226, 204, 241, 76, 205, 181, 0, 60, 127, 0, 0, 0, 0, 129, 0, 127, 112, 52, 4, 53, 226, 204, 86, 77, 168, 53, 0, 60, 127, 0, 0, 0, 0, 129, 0, 127, 201, 51, 68, 53, 226, 204, 241, 76, 205, 53, 0, 60, 127, 0, 0, 0, 0, 129, 0, 127, 112, 52, 69, 53, 29, 205, 207, 73, 138, 54, 0, 60, 129, 0, 0, 0, 0, 127, 0, 127, 180, 12, 73, 53, 29, 205, 207, 73, 138, 182, 0, 60, 129, 0, 0, 0, 0, 127, 0, 127, 180, 12, 0, 53, 29, 205, 207, 73, 138, 182, 0, 60, 0, 0, 130, 0, 127, 0, 0, 127, 243, 50, 69, 46, 226, 204, 241, 76, 205, 181, 0, 60, 0, 0, 130, 0, 127, 0, 0, 127, 152, 51, 101, 52, 226, 204, 207, 73, 138, 182, 0, 60, 0, 0, 130, 0, 127, 0, 0, 127, 152, 51, 69, 46, 226, 204, 207, 73, 138, 54, 0, 60, 0, 0, 126, 0, 127, 0, 0, 127, 152, 51, 92, 56, 29, 205, 241, 76, 205, 53, 0, 60, 0, 0, 126, 0, 127, 0, 0, 127, 243, 50, 228, 53, 29, 205, 207, 73, 138, 54, 0, 60, 0, 0, 126, 0, 127, 0, 0, 127, 243, 50, 92, 56, 192, 76, 0, 0, 0, 60, 0, 60, 0, 129, 0, 0, 0, 0, 129, 127, 92, 58, 141, 57, 64, 77, 0, 0, 0, 188, 0, 60, 0, 129, 0, 0, 0, 0, 129, 127, 181, 58, 53, 57, 64, 77, 0, 0, 0, 60, 0, 60, 0, 129, 0, 0, 0, 0, 129, 127, 92, 58, 53, 57, 192, 76, 0, 64, 0, 60, 0, 60, 129, 0, 0, 0, 0, 0, 129, 127, 181, 58, 77, 59, 192, 76, 0, 0, 0, 188, 0, 60, 129, 0, 0, 0, 0, 0, 129, 127, 13, 59, 244, 58, 192, 76, 0, 0, 0, 60, 0, 60, 129, 0, 0, 0, 0, 0, 129, 127, 181, 58, 244, 58, 64, 77, 0, 64, 0, 188, 0, 60, 127, 0, 0, 0, 0, 0, 129, 127, 13, 59, 166, 59, 64, 77, 0, 0, 0, 60, 0, 60, 127, 0, 0, 0, 0, 0, 129, 127, 181, 58, 255, 59, 64, 77, 0, 0, 0, 188, 0, 60, 127, 0, 0, 0, 0, 0, 129, 127, 13, 59, 255, 59, 192, 76, 0, 64, 0, 188, 0, 60, 0, 0, 129, 0, 0, 127, 0, 127, 13, 59, 141, 57, 64, 77, 0, 0, 0, 188, 0, 60, 0, 0, 129, 0, 0, 127, 0, 127, 181, 58, 53, 57, 192, 76, 0, 0, 0, 188, 0, 60, 0, 0, 129, 0, 0, 127, 0, 127, 181, 58, 141, 57, 192, 76, 0, 0, 64, 76, 0, 60, 129, 0, 0, 0, 0, 0, 129, 127, 220, 55, 244, 58, 64, 77, 0, 64, 64, 76, 0, 60, 0, 0, 127, 0, 0, 127, 0, 127, 220, 55, 166, 59, 192, 76, 0, 0, 64, 76, 0, 60, 0, 0, 127, 0, 0, 127, 0, 127, 42, 55, 77, 59, 64, 77, 0, 0, 64, 76, 0, 60, 0, 0, 127, 0, 0, 127, 0, 127, 42, 55, 166, 59, 192, 76, 0, 64, 64, 76, 0, 60, 0, 127, 0, 0, 0, 0, 129, 127, 220, 55, 77, 59, 64, 77, 0, 64, 0, 60, 0, 60, 0, 127, 0, 0, 0, 0, 129, 127, 181, 58, 166, 59, 192, 76, 0, 64, 0, 60, 0, 60, 0, 127, 0, 0, 0, 0, 129, 127, 181, 58, 77, 59, 64, 77, 0, 0, 64, 76, 0, 60, 0, 129, 0, 0, 0, 0, 129, 127, 42, 55, 53, 57, 64, 77, 0, 64, 64, 76, 0, 60, 127, 0, 0, 0, 0, 0, 129, 127, 220, 55, 166, 59, 64, 77, 0, 64, 0, 60, 0, 60, 127, 0, 0, 0, 0, 0, 129, 127, 181, 58, 166, 59, 47, 77, 0, 64, 250, 185, 0, 60, 0, 127, 0, 0, 0, 0, 129, 127, 2, 59, 155, 59, 47, 77, 0, 64, 250, 57, 0, 60, 0, 127, 0, 0, 0, 0, 129, 127, 192, 58, 155, 59, 208, 76, 0, 64, 250, 57, 0, 60, 0, 127, 0, 0, 0, 0, 129, 127, 192, 58, 88, 59, 192, 76, 0, 64, 0, 188, 0, 60, 0, 127, 0, 0, 0, 0, 129, 127, 13, 59, 77, 59, 208, 76, 0, 64, 250, 57, 0, 60, 0, 127, 0, 0, 0, 0, 129, 127, 192, 58, 88, 59, 208, 76, 0, 64, 250, 185, 0, 60, 0, 127, 0, 0, 0, 0, 129, 127, 2, 59, 88, 59, 226, 76, 103, 77, 198, 52, 0, 60, 129, 0, 0, 0, 0, 0, 127, 127, 94, 51, 67, 58, 226, 76, 86, 77, 168, 181, 0, 60, 129, 0, 0, 0, 0, 0, 127, 127, 234, 50, 79, 58, 226, 76, 86, 77, 168, 53, 0, 60, 129, 0, 0, 0, 0, 0, 127, 127, 104, 51, 79, 58, 29, 77, 103, 77, 198, 180, 0, 60, 127, 0, 0, 0, 0, 0, 127, 127, 244, 50, 25, 58, 29, 77, 86, 77, 168, 53, 0, 60, 127, 0, 0, 0, 0, 0, 127, 127, 104, 51, 13, 58, 29, 77, 86, 77, 168, 181, 0, 60, 127, 0, 0, 0, 0, 0, 127, 127, 234, 50, 13, 58, 226, 76, 103, 77, 198, 180, 0, 60, 0, 24, 132, 0, 0, 124, 24, 127, 244, 50, 67, 58, 29, 77, 86, 77, 168, 181, 0, 60, 0, 24, 132, 0, 0, 124, 24, 127, 194, 50, 25, 58, 226, 76, 86, 77, 168, 181, 0, 60, 0, 24, 132, 0, 0, 124, 24, 127, 194, 50, 67, 58, 29, 77, 103, 77, 198, 52, 0, 60, 0, 24, 124, 0, 0, 132, 24, 127, 94, 51, 25, 58, 226, 76, 86, 77, 168, 53, 0, 60, 0, 24, 124, 0, 0, 132, 24, 127, 144, 51, 67, 58, 29, 77, 86, 77, 168, 53, 0, 60, 0, 24, 124, 0, 0, 132, 24, 127, 144, 51, 25, 58, 29, 77, 103, 77, 198, 180, 0, 60, 0, 127, 0, 0, 0, 0, 127, 127, 244, 50, 25, 58, 226, 76, 103, 77, 198, 52, 0, 60, 0, 127, 0, 0, 0, 0, 127, 127, 94, 51, 67, 58, 29, 77, 103, 77, 198, 52, 0, 60, 0, 127, 0, 0, 0, 0, 127, 127, 94, 51, 25, 58, 29, 77, 86, 77, 168, 53, 0, 60, 0, 0, 126, 0, 0, 130, 0, 127, 144, 51, 25, 58, 226, 76, 241, 76, 205, 53, 0, 60, 0, 0, 126, 0, 0, 130, 0, 127, 84, 52, 67, 58, 29, 77, 241, 76, 205, 53, 0, 60, 0, 0, 126, 0, 0, 130, 0, 127, 84, 52, 25, 58, 226, 76, 86, 77, 168, 181, 0, 60, 0, 0, 130, 0, 0, 126, 0, 127, 194, 50, 67, 58, 29, 77, 241, 76, 205, 181, 0, 60, 0, 0, 130, 0, 0, 126, 0, 127, 170, 49, 25, 58, 226, 76, 241, 76, 205, 181, 0, 60, 0, 0, 130, 0, 0, 126, 0, 127, 170, 49, 67, 58, 29, 77, 241, 76, 205, 53, 0, 60, 127, 0, 0, 0, 0, 0, 127, 127, 106, 51, 199, 57, 29, 77, 241, 76, 205, 181, 0, 60, 127, 0, 0, 0, 0, 0, 127, 127, 233, 50, 199, 57, 226, 76, 241, 76, 205, 181, 0, 60, 129, 0, 0, 0, 0, 0, 127, 127, 233, 50, 149, 58, 226, 76, 241, 76, 205, 53, 0, 60, 129, 0, 0, 0, 0, 0, 127, 127, 106, 51, 149, 58, 226, 76, 207, 73, 138, 182, 0, 60, 129, 0, 0, 0, 0, 0, 127, 127, 224, 50, 255, 59, 226, 76, 207, 73, 138, 54, 0, 60, 129, 0, 0, 0, 0, 0, 127, 127, 114, 51, 255, 59, 29, 77, 207, 73, 138, 54, 0, 60, 127, 0, 0, 0, 0, 0, 127, 127, 114, 51, 93, 56, 29, 77, 207, 73, 138, 182, 0, 60, 127, 0, 0, 0, 0, 0, 127, 127, 224, 50, 93, 56, 226, 76, 241, 76, 205, 181, 0, 60, 0, 0, 130, 0, 0, 126, 0, 127, 170, 49, 67, 58, 29, 77, 207, 73, 138, 182, 0, 60, 0, 0, 130, 0, 0, 126, 0, 127, 180, 12, 25, 58, 226, 76, 207, 73, 138, 182, 0, 60, 0, 0, 130, 0, 0, 126, 0, 127, 180, 12, 67, 58, 29, 77, 241, 76, 205, 53, 0, 60, 0, 0, 126, 0, 0, 130, 0, 127, 84, 52, 25, 58, 226, 76, 207, 73, 138, 54, 0, 60, 0, 0, 126, 0, 0, 130, 0, 127, 40, 55, 67, 58, 29, 77, 207, 73, 138, 54, 0, 60, 0, 0, 126, 0, 0, 130, 0, 127, 40, 55, 25, 58, 47, 77, 0, 64, 250, 185, 0, 60, 0, 127, 0, 0, 0, 0, 127, 127, 25, 59, 64, 57, 192, 76, 0, 64, 0, 188, 0, 60, 0, 127, 0, 0, 0, 0, 127, 127, 13, 59, 141, 57, 208, 76, 0, 64, 250, 185, 0, 60, 0, 127, 0, 0, 0, 0, 127, 127, 25, 59, 130, 57, 192, 204, 0, 0, 0, 188, 0, 60, 0, 129, 0, 0, 0, 0, 129, 127, 181, 58, 143, 57, 192, 204, 0, 64, 0, 188, 0, 60, 127, 0, 0, 0, 0, 0, 129, 127, 13, 59, 154, 58, 64, 205, 0, 64, 0, 188, 0, 60, 0, 0, 129, 0, 0, 127, 0, 127, 13, 59, 231, 57, 192, 204, 0, 64, 64, 76, 0, 60, 127, 0, 0, 0, 0, 0, 129, 127, 220, 55, 154, 58, 192, 204, 0, 64, 64, 76, 0, 60, 0, 0, 127, 0, 0, 127, 0, 127, 220, 55, 154, 58, 64, 205, 0, 64, 64, 76, 0, 60, 0, 127, 0, 0, 0, 0, 129, 127, 220, 55, 65, 58, 192, 204, 0, 0, 64, 76, 0, 60, 0, 129, 0, 0, 0, 0, 129, 127, 42, 55, 143, 57, 64, 205, 0, 0, 64, 76, 0, 60, 129, 0, 0, 0, 0, 0, 129, 127, 220, 55, 233, 57, 47, 205, 0, 64, 250, 185, 0, 60, 0, 127, 0, 0, 0, 0, 129, 127, 2, 59, 77, 58, 64, 205, 0, 64, 0, 188, 0, 60, 0, 127, 0, 0, 0, 0, 129, 127, 13, 59, 65, 58, 64, 205, 0, 64, 0, 60, 0, 60, 0, 127, 0, 0, 0, 0, 129, 127, 181, 58, 65, 58, 47, 205, 0, 64, 250, 57, 0, 60, 0, 127, 0, 0, 0, 0, 129, 127, 192, 58, 77, 58, 208, 204, 0, 64, 250, 57, 0, 60, 0, 127, 0, 0, 0, 0, 129, 127, 192, 58, 143, 58, 192, 204, 0, 64, 0, 60, 0, 60, 0, 127, 0, 0, 0, 0, 129, 127, 181, 58, 154, 58, 192, 204, 0, 64, 0, 188, 0, 60, 0, 127, 0, 0, 0, 0, 129, 127, 13, 59, 154, 58, 208, 204, 0, 64, 250, 185, 0, 60, 0, 127, 0, 0, 0, 0, 127, 127, 25, 59, 154, 57, 192, 204, 0, 64, 0, 188, 0, 60, 0, 127, 0, 0, 0, 0, 127, 127, 13, 59, 143, 57, 64, 205, 0, 64, 0, 188, 0, 60, 0, 127, 0, 0, 0, 0, 127, 127, 13, 59, 231, 57, 226, 204, 86, 77, 168, 181, 0, 60, 127, 0, 0, 0, 0, 129, 0, 127, 201, 51, 5, 53, 226, 204, 103, 77, 198, 180, 0, 60, 127, 0, 0, 0, 0, 129, 0, 127, 152, 51, 10, 53, 226, 204, 103, 77, 198, 52, 0, 60, 127, 0, 0, 0, 0, 129, 0, 127, 152, 51, 63, 53, 29, 205, 86, 77, 168, 53, 0, 60, 129, 0, 0, 0, 0, 127, 0, 127, 194, 50, 68, 53, 29, 205, 103, 77, 198, 52, 0, 60, 129, 0, 0, 0, 0, 127, 0, 127, 243, 50, 63, 53, 29, 205, 103, 77, 198, 180, 0, 60, 129, 0, 0, 0, 0, 127, 0, 127, 243, 50, 10, 53, 29, 205, 86, 77, 168, 181, 0, 60, 0, 24, 132, 0, 127, 0, 0, 127, 243, 50, 241, 52, 29, 205, 103, 77, 198, 180, 0, 60, 0, 24, 132, 0, 127, 0, 0, 127, 243, 50, 10, 53, 226, 204, 103, 77, 198, 180, 0, 60, 0, 24, 132, 0, 127, 0, 0, 127, 152, 51, 10, 53, 226, 204, 86, 77, 168, 53, 0, 60, 0, 24, 124, 0, 127, 0, 0, 127, 152, 51, 88, 53, 226, 204, 103, 77, 198, 52, 0, 60, 0, 24, 124, 0, 127, 0, 0, 127, 152, 51, 63, 53, 29, 205, 103, 77, 198, 52, 0, 60, 0, 24, 124, 0, 127, 0, 0, 127, 243, 50, 63, 53, 226, 204, 103, 77, 198, 180, 0, 60, 0, 127, 0, 0, 127, 0, 0, 127, 152, 51, 10, 53, 226, 204, 241, 76, 205, 53, 0, 60, 0, 0, 126, 0, 127, 0, 0, 127, 152, 51, 228, 53, 226, 204, 86, 77, 168, 53, 0, 60, 0, 0, 126, 0, 127, 0, 0, 127, 152, 51, 88, 53, 29, 205, 86, 77, 168, 53, 0, 60, 0, 0, 126, 0, 127, 0, 0, 127, 243, 50, 88, 53, 29, 205, 241, 76, 205, 181, 0, 60, 0, 0, 130, 0, 127, 0, 0, 127, 243, 50, 101, 52, 29, 205, 86, 77, 168, 181, 0, 60, 0, 0, 130, 0, 127, 0, 0, 127, 243, 50, 241, 52, 226, 204, 86, 77, 168, 181, 0, 60, 0, 0, 130, 0, 127, 0, 0, 127, 152, 51, 241, 52, 29, 205, 86, 77, 168, 53, 0, 60, 129, 0, 0, 0, 0, 127, 0, 127, 194, 50, 68, 53, 226, 204, 86, 77, 168, 181, 0, 60, 127, 0, 0, 0, 0, 129, 0, 127, 201, 51, 5, 53, 29, 205, 241, 76, 205, 181, 0, 60, 0, 0, 130, 0, 127, 0, 0, 127, 243, 50, 101, 52, 226, 204, 241, 76, 205, 53, 0, 60, 0, 0, 126, 0, 127, 0, 0, 127, 152, 51, 228, 53, 192, 76, 0, 0, 0, 188, 0, 60, 0, 129, 0, 0, 0, 0, 129, 127, 181, 58, 141, 57, 192, 76, 0, 64, 0, 188, 0, 60, 129, 0, 0, 0, 0, 0, 129, 127, 13, 59, 77, 59, 64, 77, 0, 64, 0, 188, 0, 60, 0, 0, 129, 0, 0, 127, 0, 127, 13, 59, 53, 57, 192, 76, 0, 64, 64, 76, 0, 60, 129, 0, 0, 0, 0, 0, 129, 127, 220, 55, 77, 59, 192, 76, 0, 64, 64, 76, 0, 60, 0, 0, 127, 0, 0, 127, 0, 127, 220, 55, 77, 59, 64, 77, 0, 64, 64, 76, 0, 60, 0, 127, 0, 0, 0, 0, 129, 127, 220, 55, 166, 59, 192, 76, 0, 0, 64, 76, 0, 60, 0, 129, 0, 0, 0, 0, 129, 127, 42, 55, 141, 57, 64, 77, 0, 0, 64, 76, 0, 60, 127, 0, 0, 0, 0, 0, 129, 127, 220, 55, 255, 59, 64, 77, 0, 64, 0, 60, 0, 60, 0, 127, 0, 0, 0, 0, 129, 127, 181, 58, 166, 59, 64, 77, 0, 64, 0, 188, 0, 60, 0, 127, 0, 0, 0, 0, 129, 127, 13, 59, 166, 59, 47, 77, 0, 64, 250, 185, 0, 60, 0, 127, 0, 0, 0, 0, 129, 127, 2, 59, 155, 59, 192, 76, 0, 64, 0, 188, 0, 60, 0, 127, 0, 0, 0, 0, 129, 127, 13, 59, 77, 59, 192, 76, 0, 64, 0, 60, 0, 60, 0, 127, 0, 0, 0, 0, 129, 127, 181, 58, 77, 59, 208, 76, 0, 64, 250, 57, 0, 60, 0, 127, 0, 0, 0, 0, 129, 127, 192, 58, 88, 59, 226, 76, 103, 77, 198, 180, 0, 60, 129, 0, 0, 0, 0, 0, 127, 127, 244, 50, 67, 58, 29, 77, 103, 77, 198, 52, 0, 60, 127, 0, 0, 0, 0, 0, 127, 127, 94, 51, 25, 58, 226, 76, 103, 77, 198, 180, 0, 60, 0, 24, 132, 0, 0, 124, 24, 127, 244, 50, 67, 58, 29, 77, 103, 77, 198, 180, 0, 60, 0, 24, 132, 0, 0, 124, 24, 127, 244, 50, 25, 58, 29, 77, 86, 77, 168, 181, 0, 60, 0, 24, 132, 0, 0, 124, 24, 127, 194, 50, 25, 58, 29, 77, 103, 77, 198, 52, 0, 60, 0, 24, 124, 0, 0, 132, 24, 127, 94, 51, 25, 58, 226, 76, 103, 77, 198, 52, 0, 60, 0, 24, 124, 0, 0, 132, 24, 127, 94, 51, 67, 58, 226, 76, 86, 77, 168, 53, 0, 60, 0, 24, 124, 0, 0, 132, 24, 127, 144, 51, 67, 58, 226, 76, 103, 77, 198, 180, 0, 60, 0, 127, 0, 0, 0, 0, 127, 127, 244, 50, 67, 58, 29, 77, 86, 77, 168, 53, 0, 60, 0, 0, 126, 0, 0, 130, 0, 127, 144, 51, 25, 58, 226, 76, 86, 77, 168, 53, 0, 60, 0, 0, 126, 0, 0, 130, 0, 127, 144, 51, 67, 58, 226, 76, 241, 76, 205, 53, 0, 60, 0, 0, 126, 0, 0, 130, 0, 127, 84, 52, 67, 58, 226, 76, 86, 77, 168, 181, 0, 60, 0, 0, 130, 0, 0, 126, 0, 127, 194, 50, 67, 58, 29, 77, 86, 77, 168, 181, 0, 60, 0, 0, 130, 0, 0, 126, 0, 127, 194, 50, 25, 58, 29, 77, 241, 76, 205, 181, 0, 60, 0, 0, 130, 0, 0, 126, 0, 127, 170, 49, 25, 58, 29, 77, 241, 76, 205, 181, 0, 60, 0, 0, 130, 0, 0, 126, 0, 127, 170, 49, 25, 58, 226, 76, 241, 76, 205, 53, 0, 60, 0, 0, 126, 0, 0, 130, 0, 127, 84, 52, 67, 58, 47, 77, 0, 64, 250, 185, 0, 60, 0, 127, 0, 0, 0, 0, 127, 127, 25, 59, 64, 57, 64, 77, 0, 64, 0, 188, 0, 60, 0, 127, 0, 0, 0, 0, 127, 127, 13, 59, 53, 57, 192, 76, 0, 64, 0, 188, 0, 60, 0, 127, 0, 0, 0, 0, 127, 127, 13, 59, 141, 57 ),
"array_index_data": PoolByteArray( 0, 0, 2, 0, 1, 0, 3, 0, 5, 0, 4, 0, 6, 0, 8, 0, 7, 0, 9, 0, 11, 0, 10, 0, 4, 0, 5, 0, 12, 0, 13, 0, 15, 0, 14, 0, 16, 0, 18, 0, 17, 0, 1, 0, 2, 0, 19, 0, 6, 0, 21, 0, 20, 0, 22, 0, 24, 0, 23, 0, 25, 0, 27, 0, 26, 0, 28, 0, 30, 0, 29, 0, 31, 0, 33, 0, 32, 0, 34, 0, 36, 0, 35, 0, 37, 0, 39, 0, 38, 0, 40, 0, 42, 0, 41, 0, 43, 0, 45, 0, 44, 0, 46, 0, 48, 0, 47, 0, 49, 0, 51, 0, 50, 0, 52, 0, 54, 0, 53, 0, 55, 0, 57, 0, 56, 0, 58, 0, 60, 0, 59, 0, 61, 0, 62, 0, 57, 0, 63, 0, 65, 0, 64, 0, 66, 0, 68, 0, 67, 0, 69, 0, 71, 0, 70, 0, 72, 0, 74, 0, 73, 0, 75, 0, 77, 0, 76, 0, 78, 0, 80, 0, 79, 0, 81, 0, 74, 0, 72, 0, 82, 0, 84, 0, 83, 0, 85, 0, 87, 0, 86, 0, 88, 0, 71, 0, 69, 0, 89, 0, 90, 0, 76, 0, 86, 0, 92, 0, 91, 0, 87, 0, 93, 0, 92, 0, 94, 0, 96, 0, 95, 0, 97, 0, 99, 0, 98, 0, 100, 0, 102, 0, 101, 0, 103, 0, 105, 0, 104, 0, 106, 0, 108, 0, 107, 0, 109, 0, 111, 0, 110, 0, 112, 0, 114, 0, 113, 0, 115, 0, 117, 0, 116, 0, 102, 0, 119, 0, 118, 0, 99, 0, 121, 0, 120, 0, 121, 0, 123, 0, 122, 0, 119, 0, 125, 0, 124, 0, 126, 0, 128, 0, 127, 0, 129, 0, 131, 0, 130, 0, 132, 0, 134, 0, 133, 0, 0, 0, 1, 0, 135, 0, 3, 0, 4, 0, 136, 0, 6, 0, 7, 0, 21, 0, 9, 0, 10, 0, 137, 0, 4, 0, 12, 0, 138, 0, 13, 0, 14, 0, 139, 0, 16, 0, 17, 0, 140, 0, 1, 0, 19, 0, 141, 0, 6, 0, 20, 0, 142, 0, 143, 0, 145, 0, 144, 0, 146, 0, 18, 0, 16, 0, 147, 0, 149, 0, 148, 0, 150, 0, 152, 0, 151, 0, 153, 0, 155, 0, 154, 0, 156, 0, 158, 0, 157, 0, 159, 0, 161, 0, 160, 0, 162, 0, 164, 0, 163, 0, 46, 0, 47, 0, 165, 0, 166, 0, 168, 0, 167, 0, 169, 0, 171, 0, 170, 0, 55, 0, 56, 0, 172, 0, 58, 0, 59, 0, 173, 0, 61, 0, 57, 0, 55, 0, 63, 0, 64, 0, 174, 0, 66, 0, 67, 0, 175, 0, 69, 0, 70, 0, 176, 0, 72, 0, 73, 0, 177, 0, 75, 0, 76, 0, 90, 0, 78, 0, 79, 0, 178, 0, 81, 0, 72, 0, 179, 0, 82, 0, 83, 0, 180, 0, 85, 0, 86, 0, 181, 0, 88, 0, 69, 0, 182, 0, 89, 0, 76, 0, 183, 0, 184, 0, 186, 0, 185, 0, 87, 0, 92, 0, 86, 0, 187, 0, 189, 0, 188, 0, 97, 0, 98, 0, 190, 0, 100, 0, 101, 0, 191, 0, 192, 0, 194, 0, 193, 0, 195, 0, 197, 0, 196, 0, 109, 0, 110, 0, 198, 0, 199, 0, 201, 0, 200, 0, 202, 0, 204, 0, 203, 0, 102, 0, 118, 0, 101, 0, 99, 0, 120, 0, 98, 0, 121, 0, 122, 0, 120, 0, 119, 0, 124, 0, 118, 0, 126, 0, 127, 0, 205, 0, 129, 0, 130, 0, 206, 0, 207, 0, 209, 0, 208, 0 ),
"blend_shape_data": [  ],
"format": 98071,
"index_count": 306,
"material": SubResource( 1 ),
"primitive": 4,
"skeleton_aabb": [  ],
"vertex_count": 210
}
surfaces/1 = {
"aabb": AABB( -21.4606, 2, -0.962601, 42.9212, 19.3464, 1.7097 ),
"array_data": PoolByteArray( 208, 204, 0, 64, 250, 57, 0, 60, 0, 0, 127, 0, 127, 0, 0, 127, 204, 55, 92, 56, 47, 205, 207, 73, 250, 57, 0, 60, 0, 0, 127, 0, 127, 0, 0, 127, 71, 55, 97, 53, 47, 205, 0, 64, 250, 57, 0, 60, 0, 0, 127, 0, 127, 0, 0, 127, 71, 55, 92, 56, 208, 204, 0, 64, 250, 185, 0, 60, 127, 0, 0, 0, 0, 0, 129, 127, 244, 56, 92, 56, 208, 204, 207, 73, 250, 57, 0, 60, 127, 0, 0, 0, 0, 0, 129, 127, 177, 56, 97, 53, 208, 204, 0, 64, 250, 57, 0, 60, 127, 0, 0, 0, 0, 0, 129, 127, 177, 56, 92, 56, 47, 205, 0, 64, 250, 57, 0, 60, 129, 0, 0, 0, 0, 0, 127, 127, 55, 57, 92, 56, 47, 205, 207, 73, 250, 185, 0, 60, 129, 0, 0, 0, 0, 0, 127, 127, 245, 56, 97, 53, 47, 205, 0, 64, 250, 185, 0, 60, 129, 0, 0, 0, 0, 0, 127, 127, 245, 56, 92, 56, 47, 205, 0, 64, 250, 185, 0, 60, 0, 0, 129, 0, 129, 0, 0, 127, 41, 56, 92, 56, 208, 204, 207, 73, 250, 185, 0, 60, 0, 0, 129, 0, 129, 0, 0, 127, 206, 55, 97, 53, 208, 204, 0, 64, 250, 185, 0, 60, 0, 0, 129, 0, 129, 0, 0, 127, 206, 55, 92, 56, 29, 205, 207, 73, 138, 182, 0, 60, 0, 127, 0, 0, 0, 0, 127, 127, 4, 57, 72, 53, 47, 205, 207, 73, 250, 57, 0, 60, 0, 127, 0, 0, 0, 0, 127, 127, 55, 57, 97, 53, 29, 205, 207, 73, 138, 54, 0, 60, 0, 127, 0, 0, 0, 0, 127, 127, 40, 57, 72, 53, 29, 205, 207, 73, 138, 54, 0, 60, 0, 127, 0, 0, 127, 0, 0, 127, 96, 55, 67, 53, 208, 204, 207, 73, 250, 57, 0, 60, 0, 127, 0, 0, 127, 0, 0, 127, 204, 55, 97, 53, 226, 204, 207, 73, 138, 54, 0, 60, 0, 127, 0, 0, 127, 0, 0, 127, 179, 55, 67, 53, 226, 204, 207, 73, 138, 182, 0, 60, 0, 127, 0, 0, 129, 0, 0, 127, 231, 55, 67, 53, 47, 205, 207, 73, 250, 185, 0, 60, 0, 127, 0, 0, 129, 0, 0, 127, 41, 56, 97, 53, 29, 205, 207, 73, 138, 182, 0, 60, 0, 127, 0, 0, 129, 0, 0, 127, 29, 56, 67, 53, 226, 204, 207, 73, 138, 182, 0, 60, 127, 0, 0, 0, 0, 129, 0, 127, 69, 55, 0, 53, 226, 204, 241, 76, 205, 53, 0, 60, 127, 0, 0, 0, 0, 129, 0, 127, 112, 52, 69, 53, 226, 204, 207, 73, 138, 54, 0, 60, 127, 0, 0, 0, 0, 129, 0, 127, 69, 55, 73, 53, 208, 204, 207, 73, 250, 57, 0, 60, 0, 127, 0, 0, 0, 0, 129, 127, 177, 56, 97, 53, 226, 204, 207, 73, 138, 182, 0, 60, 0, 127, 0, 0, 0, 0, 129, 127, 229, 56, 72, 53, 226, 204, 207, 73, 138, 54, 0, 60, 0, 127, 0, 0, 0, 0, 129, 127, 192, 56, 72, 53, 29, 205, 86, 77, 168, 181, 0, 60, 0, 0, 126, 0, 127, 0, 0, 127, 131, 55, 237, 56, 93, 205, 241, 76, 205, 181, 0, 60, 0, 0, 126, 0, 127, 0, 0, 127, 42, 55, 51, 57, 29, 205, 241, 76, 205, 181, 0, 60, 0, 0, 126, 0, 127, 0, 0, 127, 131, 55, 51, 57, 93, 205, 86, 77, 168, 181, 0, 60, 129, 0, 0, 0, 0, 127, 0, 127, 104, 40, 60, 46, 93, 205, 241, 76, 179, 187, 0, 60, 129, 0, 0, 0, 0, 127, 0, 127, 180, 12, 99, 45, 93, 205, 241, 76, 205, 181, 0, 60, 129, 0, 0, 0, 0, 127, 0, 127, 180, 12, 56, 46, 93, 205, 86, 77, 161, 187, 0, 60, 0, 0, 130, 0, 127, 0, 0, 127, 104, 40, 102, 45, 0, 0, 241, 76, 179, 187, 0, 60, 0, 0, 130, 0, 127, 0, 0, 127, 0, 56, 110, 42, 93, 205, 241, 76, 179, 187, 0, 60, 0, 0, 130, 0, 127, 0, 0, 127, 104, 40, 110, 42, 226, 204, 241, 76, 205, 181, 0, 60, 0, 0, 126, 0, 127, 0, 0, 127, 180, 12, 91, 42, 0, 0, 86, 77, 168, 181, 0, 60, 0, 0, 126, 0, 127, 0, 0, 127, 201, 54, 245, 35, 226, 204, 86, 77, 168, 181, 0, 60, 0, 0, 126, 0, 127, 0, 0, 127, 180, 12, 245, 35, 93, 205, 86, 77, 168, 181, 0, 60, 0, 127, 0, 0, 127, 0, 0, 127, 104, 40, 60, 46, 0, 0, 86, 77, 161, 187, 0, 60, 0, 127, 0, 0, 127, 0, 0, 127, 0, 56, 102, 45, 93, 205, 86, 77, 161, 187, 0, 60, 0, 127, 0, 0, 127, 0, 0, 127, 104, 40, 102, 45, 0, 0, 241, 76, 179, 187, 0, 60, 0, 129, 0, 0, 127, 0, 0, 127, 116, 55, 169, 35, 93, 205, 241, 76, 205, 181, 0, 60, 0, 129, 0, 0, 127, 0, 0, 127, 180, 12, 254, 23, 93, 205, 241, 76, 179, 187, 0, 60, 0, 129, 0, 0, 127, 0, 0, 127, 180, 12, 169, 35, 47, 77, 207, 73, 250, 57, 0, 60, 0, 0, 127, 0, 127, 0, 0, 127, 176, 56, 97, 53, 208, 76, 0, 64, 250, 57, 0, 60, 0, 0, 127, 0, 127, 0, 0, 127, 110, 56, 92, 56, 47, 77, 0, 64, 250, 57, 0, 60, 0, 0, 127, 0, 127, 0, 0, 127, 176, 56, 92, 56, 208, 76, 207, 73, 250, 57, 0, 60, 129, 0, 0, 0, 0, 0, 127, 127, 191, 57, 97, 53, 208, 76, 0, 64, 250, 185, 0, 60, 129, 0, 0, 0, 0, 0, 127, 127, 124, 57, 92, 56, 208, 76, 0, 64, 250, 57, 0, 60, 129, 0, 0, 0, 0, 0, 127, 127, 191, 57, 92, 56, 47, 77, 207, 73, 250, 185, 0, 60, 127, 0, 0, 0, 0, 0, 129, 127, 123, 57, 97, 53, 47, 77, 0, 64, 250, 57, 0, 60, 127, 0, 0, 0, 0, 0, 129, 127, 57, 57, 92, 56, 47, 77, 0, 64, 250, 185, 0, 60, 127, 0, 0, 0, 0, 0, 129, 127, 123, 57, 92, 56, 208, 76, 207, 73, 250, 185, 0, 60, 0, 0, 129, 0, 129, 0, 0, 127, 109, 56, 97, 53, 47, 77, 0, 64, 250, 185, 0, 60, 0, 0, 129, 0, 129, 0, 0, 127, 42, 56, 92, 56, 208, 76, 0, 64, 250, 185, 0, 60, 0, 0, 129, 0, 129, 0, 0, 127, 109, 56, 92, 56, 47, 77, 207, 73, 250, 57, 0, 60, 0, 127, 0, 0, 0, 0, 129, 127, 57, 57, 97, 53, 29, 77, 207, 73, 138, 182, 0, 60, 0, 127, 0, 0, 0, 0, 129, 127, 108, 57, 72, 53, 29, 77, 207, 73, 138, 54, 0, 60, 0, 127, 0, 0, 0, 0, 129, 127, 72, 57, 72, 53, 208, 76, 207, 73, 250, 57, 0, 60, 0, 127, 0, 0, 127, 0, 0, 127, 110, 56, 97, 53, 29, 77, 207, 73, 138, 54, 0, 60, 0, 127, 0, 0, 127, 0, 0, 127, 164, 56, 67, 53, 226, 76, 207, 73, 138, 54, 0, 60, 0, 127, 0, 0, 127, 0, 0, 127, 122, 56, 67, 53, 208, 76, 207, 73, 250, 185, 0, 60, 0, 127, 0, 0, 0, 0, 127, 127, 124, 57, 97, 53, 226, 76, 207, 73, 138, 54, 0, 60, 0, 127, 0, 0, 0, 0, 127, 127, 176, 57, 72, 53, 226, 76, 207, 73, 138, 182, 0, 60, 0, 127, 0, 0, 0, 0, 127, 127, 139, 57, 72, 53, 47, 77, 207, 73, 250, 185, 0, 60, 0, 127, 0, 0, 129, 0, 0, 127, 42, 56, 97, 53, 226, 76, 207, 73, 138, 182, 0, 60, 0, 127, 0, 0, 129, 0, 0, 127, 96, 56, 67, 53, 29, 77, 207, 73, 138, 182, 0, 60, 0, 127, 0, 0, 129, 0, 0, 127, 55, 56, 67, 53, 93, 77, 241, 76, 205, 181, 0, 60, 0, 0, 126, 0, 127, 0, 0, 127, 131, 55, 236, 56, 29, 77, 86, 77, 168, 181, 0, 60, 0, 0, 126, 0, 127, 0, 0, 127, 42, 55, 166, 56, 29, 77, 241, 76, 205, 181, 0, 60, 0, 0, 126, 0, 127, 0, 0, 127, 42, 55, 236, 56, 93, 77, 241, 76, 179, 187, 0, 60, 127, 0, 0, 0, 0, 129, 0, 127, 255, 59, 99, 45, 93, 77, 86, 77, 168, 181, 0, 60, 127, 0, 0, 0, 0, 129, 0, 127, 185, 59, 59, 46, 93, 77, 241, 76, 205, 181, 0, 60, 127, 0, 0, 0, 0, 129, 0, 127, 255, 59, 56, 46, 93, 77, 86, 77, 161, 187, 0, 60, 0, 0, 130, 0, 127, 0, 0, 127, 185, 59, 102, 45, 93, 77, 241, 76, 179, 187, 0, 60, 0, 0, 130, 0, 127, 0, 0, 127, 185, 59, 110, 42, 226, 76, 241, 76, 205, 181, 0, 60, 0, 0, 126, 0, 127, 0, 0, 127, 200, 58, 91, 42, 226, 76, 86, 77, 168, 181, 0, 60, 0, 0, 126, 0, 127, 0, 0, 127, 200, 58, 245, 35, 93, 77, 86, 77, 168, 181, 0, 60, 0, 127, 0, 0, 127, 0, 0, 127, 185, 59, 59, 46, 93, 77, 86, 77, 161, 187, 0, 60, 0, 127, 0, 0, 127, 0, 0, 127, 185, 59, 102, 45, 93, 77, 241, 76, 205, 181, 0, 60, 0, 129, 0, 0, 127, 0, 0, 127, 115, 59, 251, 23, 93, 77, 241, 76, 179, 187, 0, 60, 0, 129, 0, 0, 127, 0, 0, 127, 115, 59, 169, 35, 208, 204, 0, 64, 250, 57, 0, 60, 0, 0, 127, 0, 127, 0, 0, 127, 204, 55, 92, 56, 208, 204, 207, 73, 250, 57, 0, 60, 0, 0, 127, 0, 127, 0, 0, 127, 204, 55, 97, 53, 47, 205, 207, 73, 250, 57, 0, 60, 0, 0, 127, 0, 127, 0, 0, 127, 71, 55, 97, 53, 208, 204, 207, 73, 250, 185, 0, 60, 127, 0, 0, 0, 0, 0, 129, 127, 244, 56, 97, 53, 47, 205, 207, 73, 250, 57, 0, 60, 129, 0, 0, 0, 0, 0, 127, 127, 55, 57, 97, 53, 47, 205, 0, 64, 250, 185, 0, 60, 0, 0, 129, 0, 129, 0, 0, 127, 41, 56, 92, 56, 47, 205, 207, 73, 250, 185, 0, 60, 0, 0, 129, 0, 129, 0, 0, 127, 41, 56, 97, 53, 208, 204, 207, 73, 250, 185, 0, 60, 0, 0, 129, 0, 129, 0, 0, 127, 206, 55, 97, 53, 29, 205, 207, 73, 138, 182, 0, 60, 0, 127, 0, 0, 0, 0, 127, 127, 4, 57, 72, 53, 47, 205, 207, 73, 250, 185, 0, 60, 0, 127, 0, 0, 0, 0, 127, 127, 245, 56, 97, 53, 47, 205, 207, 73, 250, 57, 0, 60, 0, 127, 0, 0, 0, 0, 127, 127, 55, 57, 97, 53, 47, 205, 207, 73, 250, 57, 0, 60, 0, 127, 0, 0, 127, 0, 0, 127, 71, 55, 97, 53, 208, 204, 207, 73, 250, 185, 0, 60, 0, 127, 0, 0, 129, 0, 0, 127, 206, 55, 97, 53, 226, 204, 241, 76, 205, 181, 0, 60, 127, 0, 0, 0, 0, 129, 0, 127, 112, 52, 4, 53, 208, 204, 207, 73, 250, 57, 0, 60, 0, 127, 0, 0, 0, 0, 129, 127, 177, 56, 97, 53, 208, 204, 207, 73, 250, 185, 0, 60, 0, 127, 0, 0, 0, 0, 129, 127, 244, 56, 97, 53, 226, 204, 207, 73, 138, 182, 0, 60, 0, 127, 0, 0, 0, 0, 129, 127, 229, 56, 72, 53, 29, 205, 86, 77, 168, 181, 0, 60, 0, 0, 126, 0, 127, 0, 0, 127, 131, 55, 237, 56, 93, 205, 86, 77, 168, 181, 0, 60, 0, 0, 126, 0, 127, 0, 0, 127, 42, 55, 237, 56, 93, 205, 241, 76, 205, 181, 0, 60, 0, 0, 126, 0, 127, 0, 0, 127, 42, 55, 51, 57, 93, 205, 86, 77, 168, 181, 0, 60, 129, 0, 0, 0, 0, 127, 0, 127, 104, 40, 60, 46, 93, 205, 86, 77, 161, 187, 0, 60, 129, 0, 0, 0, 0, 127, 0, 127, 104, 40, 102, 45, 93, 205, 241, 76, 179, 187, 0, 60, 129, 0, 0, 0, 0, 127, 0, 127, 180, 12, 99, 45, 0, 0, 86, 77, 161, 187, 0, 60, 0, 0, 130, 0, 127, 0, 0, 127, 0, 56, 102, 45, 0, 0, 241, 76, 205, 181, 0, 60, 0, 0, 126, 0, 127, 0, 0, 127, 201, 54, 91, 42, 0, 0, 86, 77, 168, 181, 0, 60, 0, 127, 0, 0, 127, 0, 0, 127, 0, 56, 60, 46, 0, 0, 241, 76, 205, 181, 0, 60, 0, 129, 0, 0, 127, 0, 0, 127, 116, 55, 253, 23, 47, 77, 207, 73, 250, 57, 0, 60, 0, 0, 127, 0, 127, 0, 0, 127, 176, 56, 97, 53, 208, 76, 207, 73, 250, 57, 0, 60, 0, 0, 127, 0, 127, 0, 0, 127, 110, 56, 97, 53, 208, 76, 0, 64, 250, 57, 0, 60, 0, 0, 127, 0, 127, 0, 0, 127, 110, 56, 92, 56, 208, 76, 207, 73, 250, 185, 0, 60, 129, 0, 0, 0, 0, 0, 127, 127, 124, 57, 97, 53, 47, 77, 207, 73, 250, 57, 0, 60, 127, 0, 0, 0, 0, 0, 129, 127, 57, 57, 97, 53, 208, 76, 207, 73, 250, 185, 0, 60, 0, 0, 129, 0, 129, 0, 0, 127, 109, 56, 97, 53, 47, 77, 207, 73, 250, 185, 0, 60, 0, 0, 129, 0, 129, 0, 0, 127, 42, 56, 97, 53, 47, 77, 0, 64, 250, 185, 0, 60, 0, 0, 129, 0, 129, 0, 0, 127, 42, 56, 92, 56, 47, 77, 207, 73, 250, 57, 0, 60, 0, 127, 0, 0, 0, 0, 129, 127, 57, 57, 97, 53, 47, 77, 207, 73, 250, 185, 0, 60, 0, 127, 0, 0, 0, 0, 129, 127, 123, 57, 97, 53, 29, 77, 207, 73, 138, 182, 0, 60, 0, 127, 0, 0, 0, 0, 129, 127, 108, 57, 72, 53, 47, 77, 207, 73, 250, 57, 0, 60, 0, 127, 0, 0, 127, 0, 0, 127, 176, 56, 97, 53, 208, 76, 207, 73, 250, 185, 0, 60, 0, 127, 0, 0, 0, 0, 127, 127, 124, 57, 97, 53, 208, 76, 207, 73, 250, 57, 0, 60, 0, 127, 0, 0, 0, 0, 127, 127, 191, 57, 97, 53, 226, 76, 207, 73, 138, 54, 0, 60, 0, 127, 0, 0, 0, 0, 127, 127, 176, 57, 72, 53, 208, 76, 207, 73, 250, 185, 0, 60, 0, 127, 0, 0, 129, 0, 0, 127, 109, 56, 97, 53, 93, 77, 241, 76, 205, 181, 0, 60, 0, 0, 126, 0, 127, 0, 0, 127, 131, 55, 236, 56, 93, 77, 86, 77, 168, 181, 0, 60, 0, 0, 126, 0, 127, 0, 0, 127, 131, 55, 166, 56, 29, 77, 86, 77, 168, 181, 0, 60, 0, 0, 126, 0, 127, 0, 0, 127, 42, 55, 166, 56, 93, 77, 241, 76, 179, 187, 0, 60, 127, 0, 0, 0, 0, 129, 0, 127, 255, 59, 99, 45, 93, 77, 86, 77, 161, 187, 0, 60, 127, 0, 0, 0, 0, 129, 0, 127, 185, 59, 102, 45, 93, 77, 86, 77, 168, 181, 0, 60, 127, 0, 0, 0, 0, 129, 0, 127, 185, 59, 59, 46 ),
"array_index_data": PoolByteArray( 0, 0, 2, 0, 1, 0, 3, 0, 5, 0, 4, 0, 6, 0, 8, 0, 7, 0, 9, 0, 11, 0, 10, 0, 12, 0, 14, 0, 13, 0, 15, 0, 17, 0, 16, 0, 18, 0, 20, 0, 19, 0, 21, 0, 23, 0, 22, 0, 24, 0, 26, 0, 25, 0, 27, 0, 29, 0, 28, 0, 30, 0, 32, 0, 31, 0, 33, 0, 35, 0, 34, 0, 36, 0, 38, 0, 37, 0, 39, 0, 41, 0, 40, 0, 42, 0, 44, 0, 43, 0, 45, 0, 47, 0, 46, 0, 48, 0, 50, 0, 49, 0, 51, 0, 53, 0, 52, 0, 54, 0, 56, 0, 55, 0, 57, 0, 59, 0, 58, 0, 60, 0, 62, 0, 61, 0, 63, 0, 65, 0, 64, 0, 66, 0, 68, 0, 67, 0, 69, 0, 71, 0, 70, 0, 72, 0, 74, 0, 73, 0, 34, 0, 76, 0, 75, 0, 37, 0, 78, 0, 77, 0, 40, 0, 80, 0, 79, 0, 81, 0, 82, 0, 42, 0, 83, 0, 85, 0, 84, 0, 3, 0, 4, 0, 86, 0, 6, 0, 7, 0, 87, 0, 88, 0, 90, 0, 89, 0, 91, 0, 93, 0, 92, 0, 15, 0, 16, 0, 94, 0, 18, 0, 19, 0, 95, 0, 21, 0, 22, 0, 96, 0, 97, 0, 99, 0, 98, 0, 100, 0, 102, 0, 101, 0, 103, 0, 105, 0, 104, 0, 33, 0, 34, 0, 106, 0, 36, 0, 37, 0, 107, 0, 39, 0, 40, 0, 108, 0, 42, 0, 43, 0, 109, 0, 110, 0, 112, 0, 111, 0, 48, 0, 49, 0, 113, 0, 51, 0, 52, 0, 114, 0, 115, 0, 117, 0, 116, 0, 118, 0, 120, 0, 119, 0, 60, 0, 61, 0, 121, 0, 122, 0, 124, 0, 123, 0, 66, 0, 67, 0, 125, 0, 126, 0, 128, 0, 127, 0, 129, 0, 131, 0, 130, 0, 34, 0, 75, 0, 106, 0, 37, 0, 77, 0, 107, 0, 40, 0, 79, 0, 108, 0, 81, 0, 42, 0, 109, 0 ),
"blend_shape_data": [  ],
"format": 98071,
"index_count": 174,
"material": SubResource( 2 ),
"primitive": 4,
"skeleton_aabb": [  ],
"vertex_count": 132
}

[sub_resource type="BoxShape" id=4]

extents = Vector3( 1, 0.55, 0.05 )

[node name="Hurdle" type="StaticBody"]

input_ray_pickable = true
input_capture_on_drag = false
collision_layer = 1
collision_mask = 1
friction = 1.0
bounce = 0.0
constant_linear_velocity = Vector3( 0, 0, 0 )
constant_angular_velocity = Vector3( 0, 0, 0 )
script = ExtResource( 1 )

[node name="Plane" type="MeshInstance" parent="." index="0"]

transform = Transform( 0.05, 0, 0, 0, 0.05, 0, 0, 0, 0.05, 0, 0, 0 )
layers = 1
material_override = null
cast_shadow = 1
extra_cull_margin = 0.0
use_in_baked_light = false
lod_min_distance = 0.0
lod_min_hysteresis = 0.0
lod_max_distance = 0.0
lod_max_hysteresis = 0.0
mesh = SubResource( 3 )
skeleton = NodePath("..")
material/0 = ExtResource( 2 )
material/1 = ExtResource( 3 )
_sections_unfolded = [ "material" ]

[node name="Shape" type="CollisionShape" parent="." index="1"]

transform = Transform( 1, 0, 0, 0, 1, 0, 0, 0, 1, 0, 0.52, 0 )
shape = SubResource( 4 )
disabled = false
_sections_unfolded = [ "Transform" ]


