[gd_scene load_steps=4 format=2]

[ext_resource path="res://minigames/FFA/hurdle/player_hurdle.gd" type="Script" id=1]
[ext_resource path="res://characters/Tux/collision.tres" type="Shape" id=2]
[ext_resource path="res://characters/Tux/character.tscn" type="PackedScene" id=3]

[node name="Player" type="KinematicBody"]

input_ray_pickable = true
input_capture_on_drag = false
collision_layer = 1
collision_mask = 1
axis_lock_linear_x = false
axis_lock_linear_y = false
axis_lock_linear_z = false
axis_lock_angular_x = false
axis_lock_angular_y = false
axis_lock_angular_z = false
collision/safe_margin = 0.001
script = ExtResource( 1 )
_sections_unfolded = [ "Transform" ]

[node name="Shape" type="CollisionShape" parent="." index="0"]

transform = Transform( 1, 0, 0, 0, -4.37114e-008, -1, 0, 1, -4.37114e-008, 0, 0.492223, 0 )
shape = ExtResource( 2 )
disabled = false
_sections_unfolded = [ "Transform" ]

[node name="Model" parent="." index="1" instance=ExtResource( 3 )]


