[gd_scene load_steps=2 format=2]

[ext_resource path="res://characters/Beastie/character.escn" type="PackedScene" id=1]

[node name="Model" index="0" instance=ExtResource( 1 )]

_sections_unfolded = [ "Transform", "Visibility" ]

[node name="Beastie" parent="." index="0"]

transform = Transform( 0.1, 0, 0, 0, 0.1, 0, 0, 0, 0.1, 0, 0.472257, -0.0880799 )
_sections_unfolded = [ "Transform" ]


