[gd_scene load_steps=2 format=2]

[ext_resource path="res://boards/player_board/player_board.gd" type="Script" id=1]

[node name="Player" type="Spatial"]

script = ExtResource( 1 )

[node name="Model" type="Spatial" parent="." index="0"]

_sections_unfolded = [ "Transform" ]

[node name="MeshInstance" type="MeshInstance" parent="Model" index="0"]

layers = 1
material_override = null
cast_shadow = 1
extra_cull_margin = 0.0
use_in_baked_light = false
lod_min_distance = 0.0
lod_min_hysteresis = 0.0
lod_max_distance = 0.0
lod_max_hysteresis = 0.0
mesh = null
skeleton = NodePath("..")


